…
## Data-prep

``` r
fco2_rf_recipe <- recipe(fco2 ~ ., data = fco2_train %>% 
                        select(-c(data:id_ponto,nstock,precipitation))
) %>%  
  step_normalize(all_numeric_predictors())  #%>% 
  #step_novel(all_nominal_predictors()) %>% 
  #step_zv(all_predictors()) %>%
  #step_naomit(c(Ts, Us)) %>% 
  #step_impute_mean(c(Us,Ts)) %>% 
  #step_poly(c(ms,ts), degree = 5)  
  #step_dummy(all_nominal_predictors())
bake(prep(fco2_rf_recipe), new_data = NULL)
#> # A tibble: 350 x 9
#>           ts      ms      p     cec hlif_sx_ds cstock   micro humidity  fco2
#>        <dbl>   <dbl>  <dbl>   <dbl>      <dbl>  <dbl>   <dbl>    <dbl> <dbl>
#>  1 -0.668    -0.832   1.44   1.54       -1.38   1.87  -0.983     0.319  4.61
#>  2  0.000956  0.878  -1.81  -1.73        2.14  -1.77   0.482     1.56   2.97
#>  3  0.383    -0.405   1.04   0.838      -0.947  1.14  -0.0119    0.319  7.65
#>  4 -0.955     0.878  -0.181 -0.339      -0.363  0.592  0.984     0.846  6.21
#>  5 -0.572     1.95   -0.587 -0.312       0.394 -0.864  0.372     0.846  3.92
#>  6  0.000956 -0.405  -1.81  -1.54        2.73  -2.14   0.791    -0.908  2.36
#>  7  0.000956  0.0229  0.631  0.0671     -0.830  0.228 -1.26     -0.420  5.85
#>  8 -0.190     1.09   -1.81  -1.54        2.73  -2.14   0.791    -1.29   3.75
#>  9  0.383     1.31   -0.587 -0.312       0.394 -0.864  0.372     0.472  4.08
#> 10 -0.381     0.451   1.04   0.838      -0.947  1.14  -0.0119    1.56  10.2 
#> # i 340 more rows
```
…
``` r
collect_metrics(fco2_rf_tune_grid)
#> # A tibble: 50 x 9
#>     mtry trees min_n .metric .estimator  mean     n std_err .config             
#>    <int> <int> <int> <chr>   <chr>      <dbl> <int>   <dbl> <chr>               
#>  1    14   735     5 rmse    standard    1.41     5  0.0591 Preprocessor1_Model~
#>  2     8   523    17 rmse    standard    1.41     5  0.0539 Preprocessor1_Model~
#>  3     3   341    28 rmse    standard    1.41     5  0.0501 Preprocessor1_Model~
#>  4     6   559     6 rmse    standard    1.40     5  0.0600 Preprocessor1_Model~
#>  5     2   697    12 rmse    standard    1.37     5  0.0527 Preprocessor1_Model~
#>  6     6   948    30 rmse    standard    1.41     5  0.0519 Preprocessor1_Model~
#>  7    14   413    22 rmse    standard    1.42     5  0.0495 Preprocessor1_Model~
#>  8    10   649    21 rmse    standard    1.41     5  0.0520 Preprocessor1_Model~
#>  9    13   785    10 rmse    standard    1.40     5  0.0544 Preprocessor1_Model~
#> 10    12   600    29 rmse    standard    1.42     5  0.0515 Preprocessor1_Model~
#> # i 40 more rows
```
…
